{
  "db_name": "PostgreSQL",
  "query": "\nUPDATE globals\nSET value = $2\nWHERE name = $1\n        ",
  "describe": {
    "columns": [],
    "parameters": {
      "Left": [
        "Text",
        "Int4"
      ]
    },
    "nullable": []
  },
  "hash": "8aa526e2a074983fc6160dba2ab537c43fc4a5cf41e39e38f59c226065a7b303"
}
